…
### Preguntas

● ¿En qué meses existe una mayor cantidad de llamadas por código?

``` r
data %>% 
  group_by(Codigo= as.factor(Cod), Mes=as.factor(month(Creacion))) %>%
  summarise(llamadas=n()) #%>% 
```

    ## # A tibble: 84 x 3
    ## # Groups:   Codigo [7]
    ##    Codigo Mes   llamadas
    ##    <fct>  <fct>    <int>
    ##  1 0      1         1361
    ##  2 0      2         1236
    ##  3 0      3         1419
    ##  4 0      4         1362
    ##  5 0      5         1404
    ##  6 0      6         1330
    ##  7 0      7         1463
    ##  8 0      8         1442
    ##  9 0      9         1380
    ## 10 0      10        1397
    ## # ... with 74 more rows
…
``` r
  # plot_ly(x=~Mes, y=~n, color=~Mes ,colors= "Spectral") %>% 
  # layout(title="Llamadas por Mes")
```

plot\_ly(x=~Mes, y=~n, color=~Mes ,colors= "Spectral") %&gt;% layout(title="Llamadas por Mes")

● ¿Existe una temporalidad en la cantidad de llamadas? No parece que la haya

``` r
data %>% 
  group_by(Fecha=date(Creacion)) %>%  summarise(llamadas= n()) #%>% 
```

    ## # A tibble: 365 x 2
    ##    Fecha      llamadas
    ##    <date>        <int>
    ##  1 2017-01-01      653
    ##  2 2017-01-02      706
    ##  3 2017-01-03      716
    ##  4 2017-01-04      751
    ##  5 2017-01-05      705
    ##  6 2017-01-06      706
    ##  7 2017-01-07      713
    ##  8 2017-01-08      730
    ##  9 2017-01-09      733
    ## 10 2017-01-10      734
    ## # ... with 355 more rows
…
    ## # A tibble: 1 x 1
    ##   Min_Promedio       
    ##   <Period>           
    ## 1 7M 46.823547255664S

``` r
data %>% 
  mutate(Duracion= (int_length(Creacion%--%Final))) #%>% 
```

    ## # A tibble: 263,725 x 8
    ##    Creacion            `Caller ID` Cod   Email   SMS  Call
    ##    <dttm>                    <dbl> <chr> <dbl> <dbl> <dbl>
    ##  1 2017-10-12 22:18:00      368224 Canc~     0     1     0
    ##  2 2017-03-19 17:35:00      368224 Otro~     0     1     0
    ##  3 2017-03-13 22:03:00      368224 Cons~     0     1     0
    ##  4 2017-04-14 17:55:00      368224 Cons~     0     1     0
    ##  5 2017-11-04 09:08:00      748633 Cons~     0     1     0
    ##  6 2017-04-29 07:19:00      599434 Canc~     0     1     0
    ##  7 2017-01-10 13:51:00      599434 Cons~     0     1     0
    ##  8 2017-09-20 12:40:00      599434 Cons~     0     1     0
    ##  9 2017-04-13 18:27:00      790749 Cons~     0     1     0
    ## 10 2017-03-23 06:23:00      760915 Cons~     0     1     0
    ## # ... with 263,715 more rows, and 2 more variables: Final <dttm>,
    ## #   Duracion <dbl>
…
``` r
data %>% 
  mutate(`Tiempo de Llamada en Minutos`= int_length(Creacion%--%Final)/60) %>%
  filter(`Tiempo de Llamada en Minutos`>=0) #%>% 
```

    ## # A tibble: 262,423 x 8
    ##    Creacion            `Caller ID` Cod   Email   SMS  Call
    ##    <dttm>                    <dbl> <chr> <dbl> <dbl> <dbl>
    ##  1 2017-10-12 22:18:00      368224 Canc~     0     1     0
    ##  2 2017-03-19 17:35:00      368224 Otro~     0     1     0
    ##  3 2017-03-13 22:03:00      368224 Cons~     0     1     0
    ##  4 2017-04-14 17:55:00      368224 Cons~     0     1     0
    ##  5 2017-11-04 09:08:00      748633 Cons~     0     1     0
    ##  6 2017-04-29 07:19:00      599434 Canc~     0     1     0
    ##  7 2017-01-10 13:51:00      599434 Cons~     0     1     0
    ##  8 2017-09-20 12:40:00      599434 Cons~     0     1     0
    ##  9 2017-04-13 18:27:00      790749 Cons~     0     1     0
    ## 10 2017-03-23 06:23:00      760915 Cons~     0     1     0
    ## # ... with 262,413 more rows, and 2 more variables: Final <dttm>, `Tiempo
    ## #   de Llamada en Minutos` <dbl>
…
