…
``` r
beatles_clean <- anti_join(beatles_words, en_stopwords)
```

    ## Joining, by = "words"

Count words
-----------

``` r
beatles_clean_count <-  count(beatles_clean, words, sort = TRUE)
beatles_clean_count
```

    ## # A tibble: 2,795 x 2
    ##    words     n
    ##    <chr> <int>
    ##  1 love    613
    ##  2 know    436
    ##  3 oh      347
    ##  4 baby    300
    ##  5 well    265
    ##  6 can     232
    ##  7 now     225
    ##  8 got     220
    ##  9 say     218
    ## 10 go      211
    ## # ... with 2,785 more rows
