…
    ##          player     club Tot_Tarjetas Yel Red
    ## 1 Daniel Parejo Valencia           16  15   1

### El mejor equipo

Para decidir cual es el mejor equipo me baso en la idea que en conjunto el ranking de sus jugadores hace al equipo, asi la suma del ranking de los jugadores me da una metrica valida para comparar a los equipos.

``` r
players_score %>% 
  group_by(club) %>% 
  summarise(rank_equipo=sum(Rank)) %>% arrange(rank_equipo)
```

    ## # A tibble: 332 x 2
    ##    club                 rank_equipo
    ##    <chr>                      <dbl>
    ##  1 PSV Eindhoven               1542
    ##  2 Ajax                        1606
    ##  3 AZ Alkmaar                  1830
    ##  4 Guangzhou Evergrande        1934
    ##  5 Los Angeles FC              2020
    ##  6 Fenerbahce                  2082
    ##  7 Shanghai SIPG FC            2231
    ##  8 Inter                       2246
    ##  9 Flamengo                    2284
    ## 10 FC Krasnodar                2378
    ## # ... with 322 more rows
…
